…
The [World Development Indicators dataset](https://data.worldbank.org/data-catalog/world-development-indicators) of the World Bank, which has about 400 000 rows, is the largest dataset I have ever worked with. While it is certainly too big for MS Excel, it's still far from being big data. For this comparison, I wanted to venture into the (for me personally) uncharted waters of analysing truly big data, which is why I came up with the following question: **How well do Base R, the [tidyverse package](https://www.tidyverse.org/), and the [data.table](https://github.com/Rdatatable/data.table/wiki) package perform when aggregating information from a dataset with 30 million rows?**  

*This comparison revolves around big data—but what is big data in the first place? Unfortunately, there is not really an official definition, but a practical one would describe big data as data that is so large that it doesn't fit into the RAM (the working memory) of your computer. Thus, this means that big data is probably one of the most relative terms of the computer science jargon: whether data is truly big depends on one's machine. (My mainstream Apple laptop has 4 GB of RAM, while the supercomputer of IBM has [16 TB of RAM](https://www.csee.umbc.edu/2011/02/is-watson-the-smartest-machine-on-earth/).) Therefore, when I talk about big data in this comparison, I mean files that require swap memory when I load them into my 4GB RAM.*

## Method <a name="method"></a>

### The Dataset

**How do I get a dataset with 30 000 000 observations?** First, I extracted all non-cancelled flights from the [nycflights13](https://github.com/hadley/nycflights13) database, which includes all outbound flights from NYC airports in 2013. This gave me 327 346 observations.

The first 10 observations of the dataset:

```R
# A tibble: 327,346 x 13
	year month   day dep_time sched_dep_time dep_delay arr_time sched_arr_time arr_delay carrier flight air_time distance
   <int> <int> <int>    <int>          <int>     <dbl>    <int>          <int>     <dbl>   <chr>  <int>    <dbl>    <dbl>
 1  2013     1     1      517            515         2      830            819        11      UA   1545      227     1400
 2  2013     1     1      533            529         4      850            830        20      UA   1714      227     1416
 3  2013     1     1      542            540         2      923            850        33      AA   1141      160     1089
 4  2013     1     1      544            545        -1     1004           1022       -18      B6    725      183     1576
 5  2013     1     1      554            600        -6      812            837       -25      DL    461      116      762
 6  2013     1     1      554            558        -4      740            728        12      UA   1696      150      719
 7  2013     1     1      555            600        -5      913            854        19      B6    507      158     1065
 8  2013     1     1      557            600        -3      709            723       -14      EV   5708       53      229
 9  2013     1     1      557            600        -3      838            846        -8      B6     79      140      944
10  2013     1     1      558            600        -2      753            745         8      AA    301      138      733
# ... with 327,336 more rows 
```
…
